<svg width="515" height="376" viewBox="0 0 515 376" fill="none" xmlns="http://www.w3.org/2000/svg">
<g clip-path="url(#clip0_1_36)">
<path d="M209.767 203.835C208.965 203.872 208.171 203.662 207.493 203.232C206.815 202.803 206.285 202.176 205.975 201.435C205.666 200.695 205.591 199.877 205.762 199.092C205.933 198.308 206.34 197.595 206.93 197.05C207.029 196.658 207.099 196.376 207.198 195.984C207.163 195.899 207.127 195.813 207.091 195.728C203.487 187.135 191.271 187.194 187.698 195.8C184.526 203.439 180.487 211.09 179.493 219.166C179.055 222.736 179.24 226.355 180.039 229.862C172.589 213.613 168.72 195.952 168.695 178.077C168.694 173.592 168.943 169.11 169.442 164.652C169.854 160.998 170.426 157.369 171.158 153.767C175.151 134.221 183.724 115.901 196.174 100.311C202.199 97.0237 207.072 91.9687 210.136 85.8272C211.246 83.6195 212.03 81.2628 212.465 78.8304C211.785 78.9195 209.902 68.5692 210.414 67.9341C209.467 66.4969 207.772 65.7826 206.737 64.3801C201.592 57.4054 194.504 58.6232 190.803 68.1013C182.898 72.0906 182.821 78.7065 187.672 85.0695C190.758 89.1177 191.182 94.5953 193.89 98.9292C193.611 99.2858 193.321 99.6312 193.043 99.9878C187.95 106.535 183.512 113.565 179.791 120.978C180.844 112.757 179.29 102.852 176.64 96.4671C173.624 89.1924 167.971 83.0656 162.993 76.7766C157.014 69.2226 144.752 72.5193 143.698 82.0953C143.688 82.188 143.678 82.2807 143.668 82.3733C144.408 82.7904 145.132 83.2331 145.84 83.7014C146.73 84.2957 147.419 85.1449 147.818 86.1377C148.216 87.1304 148.306 88.2205 148.074 89.265C147.843 90.3095 147.301 91.2597 146.521 91.9911C145.74 92.7226 144.756 93.2012 143.699 93.3642L143.591 93.3809C143.854 96.0455 144.32 98.6862 144.983 101.28C138.597 125.974 152.385 134.969 172.072 135.373C172.506 135.595 172.93 135.818 173.364 136.03C169.626 146.622 167.281 157.655 166.389 168.852C165.884 175.458 165.913 182.094 166.478 188.695C166.467 188.617 166.456 188.539 166.445 188.461C165.018 181.121 161.102 174.498 155.357 169.71C146.825 162.702 134.771 160.122 125.566 154.489C121.135 151.777 115.457 155.281 116.231 160.417C116.243 160.499 116.255 160.581 116.268 160.663C117.64 161.222 118.976 161.866 120.268 162.591C121.008 163.008 121.732 163.451 122.44 163.919C123.33 164.513 124.019 165.362 124.418 166.355C124.816 167.348 124.906 168.438 124.674 169.482C124.443 170.527 123.901 171.477 123.121 172.209C122.34 172.94 121.356 173.419 120.299 173.582L120.19 173.598C120.112 173.609 120.046 173.621 119.968 173.632C122.312 179.229 125.603 184.381 129.695 188.862C133.689 210.419 150.84 212.464 169.186 206.187H169.197C171.21 214.933 174.126 223.446 177.9 231.589H208.988C209.1 231.244 209.2 230.887 209.3 230.542C206.423 230.722 203.534 230.55 200.698 230.029C203.004 227.199 205.311 224.347 207.618 221.517C207.669 221.464 207.717 221.408 207.762 221.35C208.932 219.902 210.114 218.464 211.284 217.016L211.284 217.014C211.347 212.575 210.837 208.145 209.768 203.836L209.767 203.835Z" fill="#F2F2F2"/>
<path d="M318.951 219.559C318.604 219.575 318.259 219.484 317.965 219.298C317.671 219.111 317.442 218.839 317.308 218.518C317.173 218.197 317.141 217.843 317.215 217.503C317.289 217.163 317.466 216.854 317.721 216.618L317.838 216.156C317.822 216.119 317.807 216.082 317.791 216.045C317.441 215.218 316.854 214.513 316.105 214.018C315.355 213.523 314.476 213.261 313.578 213.265C312.68 213.268 311.802 213.537 311.056 214.037C310.31 214.537 309.729 215.246 309.385 216.076C308.01 219.387 306.26 222.703 305.828 226.204C305.639 227.752 305.719 229.32 306.065 230.84C302.836 223.797 301.159 216.142 301.148 208.394C301.148 206.449 301.256 204.507 301.472 202.574C301.651 200.99 301.899 199.418 302.216 197.856C303.947 189.384 307.663 181.443 313.059 174.685C315.671 173.26 317.783 171.069 319.111 168.407C319.592 167.45 319.932 166.429 320.12 165.374C319.826 165.413 319.01 160.926 319.232 160.651C318.821 160.028 318.086 159.719 317.638 159.111C315.408 156.087 312.335 156.615 310.731 160.724C307.304 162.453 307.271 165.321 309.374 168.079C310.711 169.833 310.895 172.208 312.069 174.086C311.948 174.241 311.823 174.391 311.702 174.545C309.494 177.383 307.571 180.43 305.958 183.644C306.35 180.044 305.882 176.403 304.592 173.019C303.285 169.866 300.834 167.21 298.676 164.484C296.085 161.21 290.77 162.639 290.313 166.789C290.309 166.83 290.304 166.87 290.3 166.91C290.621 167.091 290.934 167.283 291.241 167.486C291.627 167.743 291.926 168.111 292.099 168.542C292.271 168.972 292.31 169.444 292.21 169.897C292.11 170.35 291.875 170.762 291.536 171.079C291.198 171.396 290.772 171.603 290.313 171.674L290.266 171.681C290.38 172.836 290.582 173.981 290.87 175.105C288.102 185.809 294.078 189.708 302.612 189.883C302.8 189.98 302.984 190.076 303.172 190.168C301.552 194.759 300.535 199.542 300.148 204.395C299.929 207.258 299.942 210.135 300.187 212.996L300.173 212.895C299.554 209.713 297.857 206.842 295.367 204.767C291.668 201.729 286.443 200.611 282.453 198.169C282.029 197.897 281.536 197.752 281.032 197.75C280.528 197.749 280.035 197.892 279.609 198.162C279.184 198.432 278.845 198.818 278.632 199.275C278.419 199.732 278.341 200.24 278.407 200.739C278.412 200.774 278.418 200.81 278.423 200.846C279.018 201.088 279.597 201.367 280.157 201.681C280.478 201.862 280.791 202.054 281.098 202.257C281.484 202.514 281.783 202.882 281.956 203.313C282.128 203.743 282.167 204.216 282.067 204.668C281.967 205.121 281.732 205.533 281.393 205.85C281.055 206.167 280.629 206.375 280.17 206.445L280.123 206.452C280.089 206.457 280.06 206.462 280.027 206.467C281.043 208.893 282.469 211.126 284.243 213.069C285.974 222.413 293.408 223.299 301.361 220.578H301.366C302.238 224.369 303.502 228.059 305.138 231.589H318.613C318.662 231.439 318.705 231.285 318.749 231.135C317.501 231.213 316.249 231.139 315.02 230.913C316.02 229.686 317.02 228.45 318.019 227.223C318.042 227.2 318.063 227.176 318.082 227.151C318.589 226.523 319.101 225.9 319.609 225.272L319.609 225.271C319.636 223.347 319.414 221.427 318.951 219.559Z" fill="#F2F2F2"/>
<path d="M401.003 240.546C401.624 239.669 401.879 238.584 401.712 237.521C401.546 236.459 400.971 235.504 400.111 234.859C399.934 234.731 399.747 234.617 399.551 234.52L401.401 206.421L391.987 208.053L394.085 236.64C393.744 237.482 393.691 238.414 393.935 239.289C394.179 240.165 394.706 240.935 395.434 241.48C395.851 241.786 396.324 242.007 396.826 242.13C397.329 242.253 397.851 242.276 398.362 242.198C398.873 242.119 399.364 241.941 399.807 241.672C400.249 241.404 400.634 241.051 400.94 240.634C400.962 240.605 400.983 240.576 401.003 240.546Z" fill="#A0616A"/>
<path d="M459.881 368.225L453.574 368.224L450.573 343.9L459.882 343.901L459.881 368.225Z" fill="#A0616A"/>
<path d="M460.103 374.804L440.708 374.803V374.558C440.708 372.556 441.503 370.636 442.919 369.221C444.335 367.805 446.255 367.01 448.257 367.01L451.8 364.322L458.41 367.01L460.103 367.01L460.103 374.804Z" fill="#2F2E41"/>
<path d="M445.913 358.825L440.524 362.102L425.318 342.879L433.271 338.042L445.913 358.825Z" fill="#A0616A"/>
<path d="M449.522 364.33L432.951 374.407L432.824 374.198C431.783 372.487 431.465 370.434 431.939 368.489C432.413 366.544 433.64 364.867 435.35 363.826L436.981 359.689L444.025 358.551L445.472 357.671L449.522 364.33Z" fill="#2F2E41"/>
<path d="M361.653 30.6333H0.637016C0.468069 30.6333 0.306041 30.5662 0.186577 30.4468C0.0671135 30.3273 0 30.1653 0 29.9964C0 29.8275 0.0671135 29.6655 0.186577 29.546C0.306041 29.4266 0.468069 29.3595 0.637016 29.3595H361.653C361.822 29.3595 361.984 29.4266 362.104 29.546C362.223 29.6655 362.29 29.8275 362.29 29.9964C362.29 30.1653 362.223 30.3273 362.104 30.4468C361.984 30.5662 361.822 30.6333 361.653 30.6333Z" fill="#E6E6E6"/>
<path d="M287.075 117.355H73.797C72.0494 117.355 70.3734 118.049 69.1376 119.284C67.9019 120.52 67.2077 122.196 67.2077 123.943C67.2077 125.69 67.9019 127.366 69.1376 128.602C70.3734 129.837 72.0494 130.531 73.797 130.531H287.075C287.94 130.531 288.797 130.361 289.597 130.03C290.396 129.699 291.122 129.213 291.734 128.602C292.346 127.99 292.832 127.263 293.163 126.464C293.494 125.665 293.664 124.808 293.664 123.943C293.664 123.078 293.494 122.221 293.163 121.422C292.832 120.622 292.346 119.896 291.734 119.284C291.122 118.672 290.396 118.187 289.597 117.856C288.797 117.525 287.94 117.355 287.075 117.355Z" fill="#3F3D56"/>
<path d="M217.003 80.4128H150.876C149.128 80.4128 147.452 81.107 146.217 82.3425C144.981 83.5781 144.287 85.2539 144.287 87.0012C144.287 88.7485 144.981 90.4243 146.217 91.6599C147.452 92.8954 149.128 93.5895 150.876 93.5895H217.003C218.751 93.5895 220.427 92.8954 221.663 91.6599C222.898 90.4243 223.593 88.7485 223.593 87.0012C223.593 85.2539 222.898 83.5781 221.663 82.3425C220.427 81.107 218.751 80.4128 217.003 80.4128Z" fill="#3F3D56"/>
<path d="M18.6995 11.5125C21.6747 11.5125 24.0865 9.04729 24.0865 6.00626C24.0865 2.96524 21.6747 0.5 18.6995 0.5C15.7243 0.5 13.3125 2.96524 13.3125 6.00626C13.3125 9.04729 15.7243 11.5125 18.6995 11.5125Z" fill="#E6E6E6"/>
<path d="M37.3091 11.5125C40.2843 11.5125 42.6961 9.04729 42.6961 6.00626C42.6961 2.96524 40.2843 0.5 37.3091 0.5C34.334 0.5 31.9221 2.96524 31.9221 6.00626C31.9221 9.04729 34.334 11.5125 37.3091 11.5125Z" fill="#E6E6E6"/>
<path d="M55.9187 11.5125C58.8939 11.5125 61.3057 9.04729 61.3057 6.00626C61.3057 2.96524 58.8939 0.5 55.9187 0.5C52.9436 0.5 50.5317 2.96524 50.5317 6.00626C50.5317 9.04729 52.9436 11.5125 55.9187 11.5125Z" fill="#E6E6E6"/>
<path d="M77.1387 10.3583C77.0538 10.3584 76.9698 10.3415 76.8916 10.3086C76.8134 10.2757 76.7425 10.2274 76.6833 10.1667L73.0484 6.45149C72.932 6.33251 72.8667 6.17264 72.8667 6.00614C72.8667 5.83964 72.932 5.67977 73.0484 5.56079L76.6833 1.84591C76.8018 1.72707 76.9625 1.65983 77.1304 1.6588C77.2982 1.65776 77.4597 1.72301 77.5797 1.84038C77.6997 1.95775 77.7686 2.11774 77.7712 2.28556C77.7739 2.45339 77.7102 2.61548 77.594 2.73661L74.3949 6.00614L77.594 9.27598C77.6817 9.36561 77.741 9.47911 77.7644 9.60227C77.7878 9.72542 77.7744 9.85275 77.7258 9.96831C77.6772 10.0839 77.5955 10.1825 77.4911 10.2519C77.3866 10.3212 77.264 10.3582 77.1387 10.3583Z" fill="#E6E6E6"/>
<path d="M83.2466 10.3583C83.1212 10.3582 82.9986 10.3212 82.8942 10.2519C82.7897 10.1825 82.7081 10.0839 82.6595 9.96831C82.6108 9.85275 82.5974 9.72541 82.6208 9.60225C82.6443 9.4791 82.7035 9.3656 82.7912 9.27598L85.99 6.00614L82.7912 2.73661C82.7318 2.67702 82.6847 2.60623 82.6528 2.52835C82.6209 2.45048 82.6047 2.36704 82.6052 2.28288C82.6058 2.19872 82.623 2.11549 82.6558 2.03802C82.6887 1.96054 82.7366 1.89035 82.7968 1.83149C82.857 1.77264 82.9282 1.72629 83.0064 1.69513C83.0846 1.66397 83.1682 1.64863 83.2524 1.64997C83.3365 1.65131 83.4196 1.66931 83.4968 1.70294C83.5739 1.73658 83.6437 1.78516 83.702 1.8459L87.3365 5.56079C87.453 5.67977 87.5182 5.83964 87.5182 6.00614C87.5182 6.17264 87.453 6.33251 87.3365 6.45149L83.702 10.1667C83.6427 10.2274 83.5719 10.2757 83.4937 10.3086C83.4155 10.3415 83.3314 10.3584 83.2466 10.3583Z" fill="#E6E6E6"/>
<path d="M329.459 1.1375H322.701C322.518 1.13744 322.336 1.17349 322.167 1.24357C321.998 1.31365 321.844 1.41639 321.714 1.54593C321.585 1.67546 321.482 1.82925 321.412 1.99851C321.342 2.16777 321.306 2.34917 321.306 2.53237V9.29651C321.306 9.4797 321.342 9.66111 321.412 9.83037C321.482 9.99963 321.585 10.1534 321.714 10.283C321.844 10.4125 321.998 10.5152 322.167 10.5853C322.336 10.6554 322.518 10.6914 322.701 10.6914H329.459C329.83 10.6917 330.186 10.5451 330.449 10.2836C330.711 10.0221 330.86 9.66714 330.861 9.29651V2.53237C330.86 2.16173 330.711 1.80675 330.449 1.54527C330.186 1.28378 329.83 1.13714 329.459 1.1375Z" fill="#E6E6E6"/>
<path d="M312.897 1.1375H306.138C305.955 1.13744 305.774 1.17349 305.604 1.24357C305.435 1.31365 305.281 1.41639 305.152 1.54593C305.022 1.67546 304.919 1.82925 304.849 1.99851C304.779 2.16777 304.743 2.34917 304.743 2.53237V9.29651C304.743 9.4797 304.779 9.66111 304.849 9.83037C304.919 9.99963 305.022 10.1534 305.152 10.283C305.281 10.4125 305.435 10.5152 305.604 10.5853C305.774 10.6554 305.955 10.6914 306.138 10.6914H312.897C313.268 10.6917 313.623 10.5451 313.886 10.2836C314.149 10.0221 314.297 9.66714 314.299 9.29651V2.53237C314.297 2.16173 314.149 1.80675 313.886 1.54527C313.623 1.28378 313.268 1.13714 312.897 1.1375Z" fill="#E6E6E6"/>
<path d="M345.066 1.45596H338.308C338.124 1.45591 337.943 1.49195 337.774 1.56203C337.604 1.63211 337.451 1.73486 337.321 1.86439C337.191 1.99393 337.089 2.14772 337.019 2.31697C336.949 2.48623 336.913 2.66764 336.913 2.85083V9.61498C336.913 9.79817 336.949 9.97958 337.019 10.1488C337.089 10.3181 337.191 10.4719 337.321 10.6014C337.451 10.731 337.604 10.8337 337.774 10.9038C337.943 10.9739 338.124 11.0099 338.308 11.0098H345.066C345.437 11.0102 345.793 10.8636 346.055 10.6021C346.318 10.3406 346.466 9.98561 346.468 9.61498V2.85083C346.466 2.4802 346.318 2.12521 346.055 1.86373C345.793 1.60225 345.437 1.45561 345.066 1.45596Z" fill="#E6E6E6"/>
<path d="M208.158 4.02913H154.133C153.681 4.02913 153.249 4.2083 152.93 4.52722C152.611 4.84615 152.432 5.27869 152.432 5.72972C152.432 6.18074 152.611 6.6133 152.93 6.93222C153.249 7.25115 153.681 7.43031 154.133 7.43031H208.158C208.609 7.43031 209.042 7.25115 209.36 6.93222C209.679 6.6133 209.859 6.18074 209.859 5.72972C209.859 5.27869 209.679 4.84615 209.36 4.52722C209.042 4.2083 208.609 4.02913 208.158 4.02913Z" fill="#E6E6E6"/>
<path d="M168.536 165.661H115.026C112.408 165.661 109.896 166.702 108.045 168.553C106.193 170.404 105.153 172.916 105.153 175.534C105.153 178.152 106.193 180.663 108.045 182.515C109.896 184.366 112.408 185.406 115.026 185.406H168.536C171.154 185.406 173.666 184.366 175.518 182.515C177.369 180.663 178.41 178.152 178.41 175.534C178.41 172.916 177.369 170.404 175.518 168.553C173.666 166.702 171.154 165.661 168.536 165.661Z" fill="#6C63FF"/>
<path d="M258.355 165.661H204.846C202.227 165.661 199.716 166.702 197.864 168.553C196.012 170.404 194.972 172.916 194.972 175.534C194.972 178.152 196.012 180.663 197.864 182.515C199.716 184.366 202.227 185.406 204.846 185.406H258.355C260.974 185.406 263.485 184.366 265.337 182.515C267.189 180.663 268.229 178.152 268.229 175.534C268.229 172.916 267.189 170.404 265.337 168.553C263.485 166.702 260.974 165.661 258.355 165.661Z" fill="white"/>
<path d="M258.355 186.043H204.846C202.058 186.043 199.385 184.936 197.413 182.965C195.442 180.994 194.335 178.321 194.335 175.534C194.335 172.747 195.442 170.074 197.413 168.103C199.385 166.132 202.058 165.025 204.846 165.025H258.355C261.143 165.025 263.816 166.132 265.787 168.103C267.758 170.074 268.866 172.747 268.866 175.534C268.866 178.321 267.758 180.994 265.787 182.965C263.816 184.936 261.143 186.043 258.355 186.043ZM204.846 166.298C202.396 166.298 200.047 167.271 198.314 169.003C196.582 170.735 195.609 173.084 195.609 175.534C195.609 177.983 196.582 180.332 198.314 182.064C200.047 183.796 202.396 184.769 204.846 184.769H258.355C260.805 184.769 263.154 183.796 264.886 182.064C266.619 180.332 267.592 177.983 267.592 175.534C267.592 173.084 266.619 170.735 264.886 169.003C263.154 167.271 260.805 166.298 258.355 166.298H204.846Z" fill="#6C63FF"/>
<path d="M361.653 232.704H0.637016C0.468069 232.704 0.306041 232.637 0.186577 232.518C0.0671135 232.398 0 232.236 0 232.067C0 231.898 0.0671135 231.736 0.186577 231.617C0.306041 231.497 0.468069 231.43 0.637016 231.43H361.653C361.822 231.43 361.984 231.497 362.104 231.617C362.223 231.736 362.29 231.898 362.29 232.067C362.29 232.236 362.223 232.398 362.104 232.518C361.984 232.637 361.822 232.704 361.653 232.704Z" fill="#E6E6E6"/>
<path d="M15.2884 123.624C18.8065 123.624 21.6585 120.773 21.6585 117.255C21.6585 113.738 18.8065 110.886 15.2884 110.886C11.7702 110.886 8.91822 113.738 8.91822 117.255C8.91822 120.773 11.7702 123.624 15.2884 123.624Z" fill="#E6E6E6"/>
<path d="M322.33 79.0397C325.848 79.0397 328.7 76.188 328.7 72.6704C328.7 69.1528 325.848 66.3011 322.33 66.3011C318.812 66.3011 315.96 69.1528 315.96 72.6704C315.96 76.188 318.812 79.0397 322.33 79.0397Z" fill="#E6E6E6"/>
<path d="M75.1679 210.883C78.686 210.883 81.538 208.032 81.538 204.514C81.538 200.996 78.686 198.145 75.1679 198.145C71.6497 198.145 68.7977 200.996 68.7977 204.514C68.7977 208.032 71.6497 210.883 75.1679 210.883Z" fill="#E6E6E6"/>
<path d="M15.3183 148.136C22.3933 141.947 31.2607 138.179 40.6276 137.382C47.7217 136.842 54.8399 138.05 61.3586 140.9C67.8774 143.75 73.5977 148.154 78.0184 153.728C78.7712 154.684 77.4279 156.045 76.6671 155.079C71.2786 148.262 63.915 143.277 55.5838 140.805C48.8891 138.879 41.8179 138.665 35.0188 140.182C28.2198 141.699 21.9105 144.898 16.6696 149.487C15.7496 150.297 14.3929 148.95 15.3183 148.136Z" fill="#3F3D56"/>
<path d="M88.1267 146.159L93.7596 161.562C93.7977 161.704 93.8027 161.853 93.7744 161.997C93.746 162.141 93.685 162.277 93.596 162.393C93.507 162.51 93.3924 162.605 93.2611 162.671C93.1297 162.736 92.9851 162.771 92.8382 162.772L74.8169 161.488C73.5972 161.401 73.5876 159.489 74.8169 159.577L92.8382 160.861L91.9168 162.07L86.2839 146.667C85.861 145.511 87.7071 145.012 88.1267 146.159Z" fill="#3F3D56"/>
<path d="M458.651 228.717C458.651 228.717 463.865 239.075 461.836 244.003C459.808 248.932 463.5 287.112 461.394 288.806C459.288 290.499 457.933 289.144 460.84 292.051C463.747 294.957 465.022 291.773 464.385 296.231C463.748 300.69 459.925 357.376 459.925 357.376L451.202 357.594C451.202 357.594 440.178 329.988 442.089 310.88L431.177 258.259C431.177 258.259 429.604 267.635 429.476 269.831C429.349 272.028 428.075 272.665 427.438 272.665C424.249 272.665 425.231 272.098 425.697 275.248C426.164 278.397 420.457 303.607 420.457 303.607L439.541 347.822L433.171 354.191L400.161 305.914L393.832 256.832C393.832 256.832 392.077 251.907 393.832 251.777C395.587 251.646 396.58 252.203 396.083 250.332C395.587 248.462 405.779 217.252 405.779 217.252L458.651 228.717Z" fill="#2F2E41"/>
<path d="M461.837 229.991C460.365 233.398 455.352 230.278 444 231.265C442.688 231.379 441.395 231.437 440.108 231.45C432.496 231.532 425.38 230.087 419.621 229.66C415.475 229.348 412.028 229.564 409.601 231.265C403.231 235.723 400.708 221.927 400.708 221.927C400.437 218.28 401.32 214.639 403.231 211.52C406.416 206.425 409.678 194.317 405.142 189.865C400.607 185.413 400.122 178.406 401.957 176.489C403.792 174.572 409.818 136.236 408.964 129.994C408.289 125.07 415.895 123.491 419.131 123.045C419.997 122.924 420.552 122.886 420.552 122.886L428.075 124.261L438.904 126.172L447.625 126.338C447.625 126.338 447.746 126.395 447.975 126.497C451.943 128.374 455.73 130.61 459.288 133.178C464.436 137.057 460.633 194.954 460.633 194.954C460.633 194.954 459.925 212.195 463.748 215.979C467.57 219.762 463.308 226.583 461.837 229.991Z" fill="#3F3D56"/>
<path d="M424.253 126.691L409.601 127.328C409.601 127.328 389.854 166.818 392.402 169.365C394.95 171.913 397.553 170.467 394.34 173.738C391.128 177.008 387.943 175.735 389.854 178.282C391.765 180.83 394.313 177.963 391.765 181.626C389.217 185.288 391.049 214.705 391.049 214.705H401.125C401.125 214.705 408.248 189.993 407.651 187.004C407.053 184.015 406.974 181.46 407.651 180.508C408.327 179.556 424.253 126.691 424.253 126.691Z" fill="#3F3D56"/>
<path d="M433.281 113.72C441.392 113.72 447.968 107.145 447.968 99.0351C447.968 90.9249 441.392 84.3503 433.281 84.3503C425.17 84.3503 418.594 90.9249 418.594 99.0351C418.594 107.145 425.17 113.72 433.281 113.72Z" fill="#A0616A"/>
<path d="M444.726 111.682L438.904 112.797C438.904 112.797 444.319 104.058 444 100.058C443.682 96.0583 439.324 94.6252 439.324 94.6252C439.324 94.6252 436.91 95.1475 434.368 95.4405C434.064 94.5835 433.669 93.7614 433.19 92.9883C433.096 93.9864 432.654 94.9197 431.941 95.6252C431.01 95.7052 430.072 95.5969 429.183 95.3067C428.177 94.8481 428.196 94.052 428.527 93.3068C425.246 93.5775 422.045 94.4566 419.086 95.8991C418.94 93.9437 419.015 91.978 419.309 90.0393C419.449 90.0011 419.59 89.9566 419.73 89.912C420.598 89.6373 421.435 89.2723 422.227 88.8228C421.346 88.7059 420.522 88.3187 419.87 87.7146C420.405 86.1477 421.259 84.7911 422.603 84.1287C423.899 83.4946 425.317 83.1465 426.76 83.108C428.204 83.0696 429.638 83.3416 430.967 83.9058C430.967 83.9058 427.852 81.6319 428.998 80.702C429.075 80.7784 429.151 80.8485 429.234 80.9186C429.342 81.0078 429.463 81.1033 429.578 81.1925C430.285 81.7657 431.343 80.9568 431.483 80.0906C431.498 79.9812 431.519 79.8728 431.546 79.7658C431.566 79.6766 431.591 79.5874 431.616 79.5046C431.638 79.4311 431.664 79.3589 431.693 79.2881C433.814 78.7785 440.229 80.8486 442.694 85.4089C442.694 85.4089 459.925 93.6889 444.726 111.682Z" fill="#3F3D56"/>
<path d="M443.66 237.785C443.506 236.721 443.773 235.639 444.405 234.769C445.037 233.899 445.983 233.31 447.043 233.127C447.259 233.093 447.477 233.077 447.696 233.079L458.835 207.216L466.476 212.952L451.598 237.454C451.519 238.359 451.142 239.213 450.526 239.882C449.91 240.551 449.091 240.997 448.195 241.151C447.684 241.233 447.162 241.215 446.658 241.096C446.155 240.977 445.68 240.76 445.26 240.457C444.841 240.155 444.485 239.772 444.213 239.332C443.941 238.892 443.759 238.403 443.676 237.892C443.67 237.857 443.665 237.821 443.66 237.785Z" fill="#A0616A"/>
<path d="M444.956 133.061L459.607 133.697C459.607 133.697 481.265 170.639 478.717 173.187C476.169 175.735 473.566 174.288 476.779 177.559C479.991 180.83 483.177 179.556 481.265 182.104C479.354 184.652 476.806 181.785 479.354 185.447C481.902 189.11 461.199 223.622 461.199 223.622L452.281 219.163C452.281 219.163 460.96 196.362 461.557 193.373C462.155 190.384 462.234 187.829 461.557 186.877C460.881 185.925 444.956 133.061 444.956 133.061Z" fill="#3F3D56"/>
<path d="M447.975 126.497L427.438 173.942L419.131 123.045C419.997 122.924 420.552 122.886 420.552 122.886L424.087 116.02L444.338 117.07L447.625 126.338C447.625 126.338 447.746 126.395 447.975 126.497Z" fill="#6C63FF"/>
<path d="M440.108 232.086C432.496 232.169 425.38 230.723 419.621 230.297L426.801 194.323L440.108 232.086Z" fill="#6C63FF"/>
<path d="M352.134 374.742C352.134 374.842 352.153 374.94 352.191 375.032C352.229 375.125 352.285 375.208 352.355 375.279C352.426 375.349 352.51 375.405 352.602 375.443C352.694 375.481 352.793 375.5 352.892 375.5H514.242C514.443 375.5 514.636 375.42 514.778 375.278C514.92 375.136 515 374.943 515 374.742C515 374.541 514.92 374.348 514.778 374.206C514.636 374.064 514.443 373.984 514.242 373.984H352.892C352.793 373.984 352.694 374.003 352.602 374.041C352.51 374.079 352.426 374.135 352.355 374.205C352.285 374.276 352.229 374.36 352.191 374.452C352.153 374.544 352.134 374.642 352.134 374.742Z" fill="#CCCCCC"/>
</g>
<defs>
<clipPath id="clip0_1_36">
<rect width="515" height="375" fill="white" transform="translate(0 0.5)"/>
</clipPath>
</defs>
</svg>
